﻿{
  "webroot": "wwwroot",
  "version": "1.0.0-*",

  "appSettings": {
    "LogPath": "D:\\Projects\\vNext"
  },

  "dependencies": {
    "Kestrel": "1.0.0-beta6",
    "Microsoft.AspNet.Mvc": "6.0.0-beta6",
    "Microsoft.AspNet.Server.IIS": "1.0.0-beta6",
    "Microsoft.AspNet.Server.WebListener": "1.0.0-beta6",
    "Microsoft.AspNet.StaticFiles": "1.0.0-beta6",
    "Serilog.Framework.Logging": "1.0.0-beta6-10048",  
    "vNextTest.Core": "1.0.0-*",
    "vNextTest.Data": "1.0.0-*"
  },

  "commands": {
    "web": "Microsoft.AspNet.Hosting --config hosting_windows.ini",
    "kestrel": "Microsoft.AspNet.Hosting --config hosting_linux.ini"
  },

  "frameworks": {
    "dnx451": { }
  },

  "exclude": [
    "wwwroot",
    "node_modules",
    "bower_components"
  ],
  "publishExclude": [
    "node_modules",
    "bower_components",
    "**.xproj",
    "**.user",
    "**.vspscc"
  ]
}
